{
  "transations": [
    {
      "date": "12-12-2016",
      "type": "NON_CASH",
      "price": 4500.0
    },
    {
      "date": "15-12-2016",
      "type": "NON_CASH",
      "price": 2000.0
    },
    {
      "date": "20-12-2016",
      "type": "CASH",
      "price": 500.0
    }
  ],
  "customer": {
    "name": "Jan",
    "surname": "Kowalski",
    "age": 44,
    "adres": "ul. Mikołowska Katowice 00-999"
  },
  "startBalance": 10000.0,
  "endBalance": 3000.0,
  "in": {}
}